NumElements=40
1 0 0 1 -1
2 -1 0 -1 -1
3 1 0 -1 -1
4 1 0 -1 0
5 1 0 0 0
6 0 1 1 0
7 -1 1 1 1
8 -1 1 0 -1
9 0 0 0 0
10 0 0 0 -1
11 0 0 -1 1
12 1 -1 -1 -1
13 1 1 0 1
14 0 0 -1 1
15 1 1 0 0
16 0 -1 -1 -1
17 1 1 0 0
18 0 -1 -1 0
19 1 -1 1 -1
20 -1 0 0 0
21 0 1 0 0
22 0 0 -1 0
23 1 0 0 -1
24 0 1 1 -1
25 -1 0 0 1
26 0 0 -1 1
27 1 0 0 0
28 0 1 -1 0
29 1 1 -1 -1
30 1 -1 0 0
31 0 -1 1 1
32 -1 0 -1 1
33 1 0 -1 1
34 1 1 -1 1
35 1 0 0 -1
36 0 -1 1 0
37 -1 -1 0 0
38 0 -1 0 0
39 0 -1 0 0
40 0 1 0 0
