NumElements=64
1 0 -1 0 1
2 -1 -1 1 0
3 -1 -1 0 1
4 -1 1 -1 1
5 0 -1 1 -1
6 0 -1 -1 1
7 0 1 0 1
8 0 1 -1 0
9 1 0 0 1
10 0 -1 1 -1
11 -1 -1 0 0
12 -1 0 1 1
13 0 1 0 0
14 0 1 0 1
15 -1 0 0 1
16 -1 0 -1 0
17 -1 0 0 0
18 0 -1 0 1
19 -1 -1 -1 0
20 -1 1 1 1
21 -1 0 0 -1
22 -1 0 -1 0
23 -1 0 -1 -1
24 -1 -1 0 1
25 1 1 1 -1
26 0 0 1 1
27 0 0 1 0
28 0 -1 1 -1
29 -1 -1 1 0
30 -1 0 0 0
31 0 1 0 1
32 -1 1 1 0
33 -1 -1 0 1
34 -1 1 0 -1
35 1 -1 -1 0
36 0 -1 0 1
37 0 1 -1 0
38 1 0 1 0
39 -1 1 1 0
40 -1 1 1 -1
41 1 0 1 1
42 0 0 0 1
43 0 0 0 -1
44 0 -1 0 -1
45 -1 1 1 1
46 1 0 -1 -1
47 0 1 0 1
48 0 1 1 0
49 -1 -1 0 0
50 0 0 0 1
51 1 0 0 -1
52 0 -1 1 -1
53 0 -1 1 0
54 0 0 1 0
55 -1 -1 0 1
56 -1 -1 0 1
57 1 -1 0 0
58 0 0 1 1
59 0 0 1 -1
60 1 0 1 -1
61 1 -1 1 0
62 -1 -1 1 1
63 0 0 -1 0
64 1 -1 1 -1