NumElements=625
1 -1 0 1 -1
2 0 1 -1 1
3 -1 0 0 0
4 -1 -1 1 1
5 0 0 -1 0
6 -1 -1 0 1
7 0 0 1 -1
8 1 1 1 1
9 1 0 0 -1
10 1 -1 1 0
11 0 0 -1 1
12 -1 1 1 0
13 1 1 0 0
14 1 0 0 0
15 0 1 1 0
16 -1 0 -1 1
17 0 1 -1 1
18 -1 0 0 -1
19 1 -1 -1 1
20 1 -1 -1 0
21 1 0 0 0
22 -1 0 0 -1
23 1 0 -1 -1
24 0 0 -1 1
25 0 1 -1 1
26 0 0 -1 1
27 1 -1 0 0
28 -1 1 1 -1
29 -1 -1 -1 1
30 1 1 -1 0
31 1 -1 -1 -1
32 -1 -1 1 1
33 0 0 1 0
34 1 1 0 1
35 -1 -1 0 -1
36 -1 -1 1 0
37 0 1 1 0
38 1 -1 1 1
39 1 0 -1 -1
40 -1 0 1 -1
41 -1 -1 0 -1
42 -1 0 -1 -1
43 0 -1 1 -1
44 1 0 1 1
45 -1 1 1 -1
46 -1 1 -1 0
47 -1 -1 1 1
48 0 1 -1 0
49 0 0 0 0
50 -1 -1 0 0
51 0 -1 1 -1
52 0 1 1 0
53 0 1 1 0
54 0 0 -1 0
55 1 1 -1 -1
56 -1 1 1 0
57 1 0 0 0
58 0 0 0 0
59 -1 0 1 1
60 1 1 0 1
61 1 0 -1 1
62 -1 -1 -1 1
63 0 1 -1 0
64 1 0 0 -1
65 1 0 0 0
66 -1 -1 -1 1
67 -1 -1 0 -1
68 1 1 -1 1
69 1 1 0 0
70 1 1 0 1
71 0 0 0 -1
72 -1 -1 0 -1
73 -1 -1 -1 0
74 -1 1 1 0
75 -1 1 1 -1
76 -1 -1 0 -1
77 1 -1 1 0
78 0 -1 0 0
79 0 1 0 1
80 1 1 1 1
81 0 -1 1 1
82 -1 1 0 1
83 0 1 -1 1
84 1 -1 1 -1
85 -1 -1 -1 -1
86 -1 -1 -1 0
87 -1 1 0 -1
88 0 1 0 1
89 1 1 0 1
90 0 0 1 1
91 0 0 1 -1
92 1 1 1 0
93 0 -1 0 0
94 0 -1 -1 0
95 -1 0 -1 1
96 -1 0 1 -1
97 1 -1 1 1
98 -1 -1 -1 0
99 -1 0 0 0
100 1 0 -1 0
101 1 -1 1 0
102 1 1 0 1
103 0 0 0 -1
104 -1 0 1 0
105 0 1 0 0
106 0 0 1 0
107 -1 1 0 0
108 0 0 0 -1
109 0 0 0 1
110 1 -1 0 0
111 1 0 -1 1
112 1 0 1 1
113 0 0 0 1
114 -1 -1 -1 0
115 -1 -1 -1 1
116 -1 0 1 0
117 0 0 0 -1
118 0 0 0 0
119 1 1 1 0
120 0 0 0 1
121 1 1 1 0
122 -1 0 1 1
123 0 1 -1 -1
124 0 1 0 1
125 1 0 -1 0
126 0 0 0 1
127 0 0 1 -1
128 1 0 -1 0
129 1 1 -1 0
130 1 -1 0 1
131 -1 0 0 -1
132 -1 0 -1 -1
133 0 0 1 0
134 1 1 0 0
135 0 -1 0 -1
136 0 -1 0 0
137 1 1 0 0
138 0 0 1 1
139 1 -1 0 -1
140 -1 0 -1 -1
141 1 1 0 1
142 -1 1 -1 0
143 0 1 0 0
144 -1 -1 0 0
145 1 0 0 0
146 1 1 -1 -1
147 -1 0 0 0
148 1 0 1 0
149 1 -1 -1 1
150 -1 0 0 1
151 -1 -1 0 0
152 1 1 1 0
153 0 0 0 0
154 0 1 -1 -1
155 1 0 -1 -1
156 -1 1 1 -1
157 0 -1 0 0
158 0 0 1 0
159 0 0 -1 0
160 1 0 1 0
161 1 0 1 -1
162 1 -1 1 0
163 1 1 1 0
164 0 0 -1 0
165 -1 -1 -1 -1
166 -1 0 1 0
167 1 -1 -1 -1
168 0 0 -1 1
169 1 -1 -1 1
170 -1 1 0 0
171 -1 1 -1 1
172 0 -1 1 1
173 0 0 1 -1
174 -1 -1 1 -1
175 0 -1 1 0
176 1 -1 0 -1
177 1 -1 1 -1
178 0 0 0 0
179 1 0 1 -1
180 0 -1 1 1
181 0 1 0 -1
182 -1 0 0 1
183 1 -1 -1 1
184 0 -1 -1 -1
185 1 1 0 1
186 0 -1 0 0
187 1 -1 0 1
188 1 0 0 1
189 1 -1 0 1
190 0 0 -1 1
191 0 1 0 1
192 0 0 0 0
193 -1 -1 0 1
194 -1 0 1 1
195 -1 0 1 -1
196 1 1 -1 1
197 0 0 1 1
198 0 1 0 0
199 -1 1 -1 -1
200 -1 1 0 -1
201 -1 1 -1 1
202 0 0 -1 0
203 0 -1 -1 0
204 0 1 0 -1
205 -1 0 1 1
206 1 1 1 0
207 -1 0 1 1
208 -1 0 0 0
209 -1 1 -1 0
210 1 0 -1 1
211 0 -1 1 0
212 0 0 1 1
213 -1 1 1 0
214 -1 -1 -1 0
215 -1 -1 0 1
216 1 0 -1 0
217 -1 0 1 0
218 1 -1 -1 1
219 0 0 1 1
220 0 -1 1 0
221 0 -1 -1 -1
222 1 0 0 0
223 -1 -1 1 0
224 1 0 1 1
225 0 1 0 0
226 1 0 -1 -1
227 -1 -1 1 -1
228 0 0 0 1
229 -1 -1 -1 1
230 -1 -1 1 -1
231 0 1 1 0
232 0 0 0 1
233 0 -1 1 -1
234 -1 -1 0 0
235 -1 -1 -1 -1
236 -1 0 -1 0
237 0 1 0 -1
238 1 1 1 1
239 0 0 -1 -1
240 0 0 -1 1
241 1 0 -1 0
242 0 -1 -1 0
243 0 1 1 0
244 1 -1 -1 0
245 -1 -1 -1 0
246 1 1 -1 0
247 0 -1 0 -1
248 1 0 -1 0
249 1 1 0 1
250 1 1 -1 1
251 -1 1 1 -1
252 -1 1 1 0
253 1 0 1 0
254 0 0 0 -1
255 1 -1 1 0
256 -1 -1 1 1
257 1 1 0 0
258 -1 1 0 0
259 -1 1 0 0
260 -1 1 1 1
261 -1 -1 1 1
262 -1 -1 -1 0
263 0 0 0 -1
264 -1 0 -1 1
265 0 0 1 -1
266 -1 -1 1 0
267 -1 1 0 1
268 -1 0 -1 0
269 1 -1 1 -1
270 0 0 0 0
271 -1 0 1 -1
272 -1 -1 -1 1
273 0 0 1 1
274 1 0 1 0
275 1 -1 0 1
276 1 0 1 -1
277 0 -1 -1 0
278 -1 1 1 -1
279 -1 1 -1 -1
280 1 -1 -1 0
281 -1 1 1 1
282 1 1 0 1
283 1 -1 0 0
284 0 -1 -1 0
285 1 0 -1 0
286 1 1 0 0
287 0 -1 -1 1
288 1 -1 1 1
289 1 1 0 -1
290 0 -1 -1 -1
291 -1 -1 1 1
292 1 1 0 1
293 1 -1 0 0
294 1 0 0 0
295 0 0 0 0
296 -1 0 1 -1
297 0 1 0 0
298 1 1 -1 -1
299 -1 1 1 0
300 0 0 1 1
301 1 1 1 1
302 -1 1 -1 1
303 0 -1 0 0
304 -1 0 1 0
305 1 -1 0 -1
306 -1 -1 0 -1
307 1 -1 0 1
308 1 -1 -1 -1
309 1 -1 0 1
310 1 1 0 1
311 -1 -1 0 0
312 -1 1 1 0
313 -1 1 -1 1
314 0 1 0 0
315 -1 -1 -1 1
316 1 0 1 1
317 0 1 1 -1
318 1 0 1 0
319 -1 0 -1 1
320 -1 1 1 -1
321 1 1 1 1
322 1 -1 1 1
323 0 1 1 0
324 0 0 0 -1
325 1 1 -1 -1
326 -1 0 -1 -1
327 -1 0 1 1
328 -1 0 1 -1
329 0 0 0 -1
330 -1 0 1 -1
331 -1 1 -1 0
332 0 1 1 0
333 -1 -1 0 -1
334 0 0 0 0
335 1 1 1 -1
336 0 1 0 0
337 0 0 1 -1
338 0 -1 0 -1
339 -1 -1 0 1
340 1 0 1 1
341 -1 1 0 1
342 1 1 -1 0
343 -1 0 -1 0
344 0 1 0 -1
345 1 -1 1 -1
346 -1 0 -1 0
347 -1 -1 1 0
348 1 0 0 -1
349 1 -1 1 -1
350 1 -1 0 -1
351 -1 -1 -1 -1
352 0 -1 0 -1
353 1 -1 0 0
354 0 0 0 -1
355 0 0 0 0
356 -1 -1 -1 -1
357 -1 1 -1 0
358 -1 0 1 0
359 0 -1 0 1
360 1 0 -1 1
361 1 1 0 -1
362 -1 0 1 0
363 0 -1 1 1
364 -1 0 -1 0
365 1 0 -1 1
366 1 0 1 0
367 0 1 0 0
368 -1 -1 0 0
369 0 0 1 1
370 0 -1 -1 1
371 1 -1 -1 1
372 1 0 0 0
373 1 0 0 0
374 0 -1 1 0
375 0 -1 0 -1
376 1 1 -1 -1
377 0 1 -1 1
378 1 -1 -1 1
379 -1 -1 -1 0
380 -1 -1 1 1
381 1 1 0 1
382 0 0 -1 -1
383 1 0 1 -1
384 0 1 1 -1
385 0 -1 0 1
386 0 -1 -1 0
387 0 -1 0 0
388 0 0 0 0
389 1 1 -1 0
390 0 -1 1 0
391 1 0 -1 0
392 0 1 -1 -1
393 0 0 0 -1
394 -1 0 0 -1
395 0 1 0 -1
396 -1 1 0 0
397 0 1 1 1
398 1 1 0 1
399 0 0 1 -1
400 0 -1 0 -1
401 -1 1 0 1
402 0 1 -1 0
403 -1 0 -1 -1
404 -1 1 -1 1
405 0 1 1 1
406 0 1 0 -1
407 1 0 1 -1
408 -1 -1 1 -1
409 0 -1 -1 -1
410 1 0 1 1
411 0 0 -1 -1
412 0 0 0 1
413 0 0 -1 0
414 1 1 -1 -1
415 0 1 1 1
416 -1 1 1 0
417 1 1 -1 -1
418 -1 0 -1 1
419 0 0 0 0
420 0 0 0 1
421 -1 1 0 1
422 0 -1 1 -1
423 0 1 1 -1
424 -1 -1 -1 -1
425 1 -1 -1 1
426 1 -1 1 0
427 0 0 0 0
428 1 1 0 -1
429 -1 1 -1 1
430 0 0 1 0
431 0 1 1 1
432 0 0 1 1
433 1 0 -1 0
434 0 1 0 -1
435 -1 0 1 -1
436 -1 1 1 0
437 1 -1 1 1
438 -1 1 -1 0
439 1 0 0 -1
440 0 1 -1 0
441 -1 0 0 1
442 0 1 1 1
443 -1 1 0 -1
444 -1 -1 0 0
445 0 1 -1 1
446 1 1 0 1
447 0 -1 -1 -1
448 -1 1 0 1
449 -1 0 1 -1
450 0 1 0 -1
451 1 1 0 -1
452 -1 1 -1 0
453 1 -1 0 0
454 0 -1 -1 -1
455 -1 -1 0 0
456 0 -1 -1 1
457 1 0 -1 -1
458 0 1 1 1
459 0 0 1 -1
460 -1 0 -1 0
461 -1 -1 -1 -1
462 -1 0 1 1
463 1 0 0 1
464 -1 1 0 0
465 1 1 0 -1
466 1 0 -1 1
467 0 1 0 1
468 0 -1 0 1
469 1 -1 0 1
470 -1 0 1 -1
471 0 1 -1 1
472 0 1 -1 0
473 -1 -1 -1 0
474 -1 0 0 0
475 0 -1 0 1
476 0 -1 1 0
477 -1 0 0 -1
478 0 0 -1 0
479 -1 1 0 -1
480 1 1 1 0
481 1 -1 0 1
482 0 0 1 1
483 1 0 -1 -1
484 -1 -1 -1 0
485 0 -1 0 -1
486 0 -1 0 0
487 -1 0 0 -1
488 1 0 0 -1
489 0 -1 0 -1
490 -1 0 -1 0
491 -1 0 -1 0
492 0 -1 -1 -1
493 1 0 0 1
494 0 1 1 1
495 0 1 0 1
496 1 -1 1 -1
497 -1 0 1 1
498 0 -1 -1 -1
499 0 -1 1 0
500 -1 0 1 1
501 -1 0 -1 0
502 -1 0 1 -1
503 1 1 0 -1
504 1 0 0 1
505 -1 -1 0 1
506 0 1 0 -1
507 0 0 0 1
508 1 1 1 0
509 -1 0 0 0
510 1 1 0 -1
511 0 -1 -1 -1
512 0 0 0 0
513 1 -1 0 1
514 0 1 1 0
515 0 1 -1 0
516 -1 -1 -1 0
517 1 1 1 0
518 1 0 1 1
519 0 0 1 0
520 0 0 0 0
521 0 0 0 -1
522 -1 -1 0 -1
523 0 -1 0 0
524 0 0 1 -1
525 1 -1 0 0
526 0 0 1 1
527 0 0 -1 0
528 0 0 1 -1
529 1 0 -1 -1
530 -1 1 0 1
531 1 1 -1 0
532 1 0 -1 0
533 0 0 -1 1
534 -1 -1 0 -1
535 1 0 1 0
536 0 -1 1 1
537 0 0 -1 0
538 0 -1 1 -1
539 0 1 -1 0
540 0 -1 1 0
541 1 0 1 0
542 0 -1 -1 -1
543 1 -1 -1 0
544 0 -1 -1 0
545 -1 0 0 -1
546 1 -1 -1 -1
547 1 1 0 1
548 1 -1 0 0
549 1 1 -1 -1
550 -1 1 0 1
551 1 0 0 -1
552 0 -1 0 -1
553 0 1 1 0
554 1 0 0 -1
555 -1 1 1 0
556 0 1 0 0
557 -1 0 -1 0
558 -1 1 1 0
559 0 0 -1 1
560 -1 -1 0 -1
561 0 0 0 -1
562 0 1 1 1
563 1 0 -1 1
564 1 1 0 0
565 0 0 1 1
566 1 0 1 1
567 0 0 -1 0
568 0 -1 -1 0
569 1 1 0 -1
570 1 -1 1 1
571 -1 0 1 -1
572 1 -1 -1 -1
573 -1 0 -1 -1
574 1 1 -1 1
575 0 0 1 -1
576 0 -1 1 0
577 -1 1 -1 0
578 1 1 -1 0
579 1 -1 1 -1
580 0 -1 -1 1
581 1 1 0 -1
582 1 0 1 -1
583 0 0 -1 -1
584 1 0 0 1
585 -1 -1 0 0
586 0 0 1 0
587 -1 0 1 1
588 1 1 0 1
589 0 1 0 1
590 1 -1 0 1
591 1 -1 0 0
592 0 -1 -1 1
593 0 0 -1 0
594 -1 -1 -1 -1
595 0 -1 -1 -1
596 1 0 -1 -1
597 -1 0 1 -1
598 1 1 0 0
599 -1 1 1 1
600 0 1 -1 1
601 1 1 0 1
602 -1 -1 -1 -1
603 1 -1 -1 -1
604 -1 -1 0 1
605 0 0 -1 0
606 -1 -1 -1 1
607 -1 0 1 0
608 1 1 1 1
609 0 0 1 1
610 1 -1 -1 1
611 -1 -1 0 1
612 -1 0 0 0
613 -1 0 -1 -1
614 1 1 1 -1
615 1 -1 0 0
616 1 0 -1 0
617 -1 -1 -1 1
618 0 0 -1 1
619 0 -1 0 -1
620 -1 -1 -1 0
621 0 0 -1 0
622 0 1 1 -1
623 -1 0 0 0
624 -1 -1 -1 1
625 0 0 1 1 